<svg width="1102" height="812" viewBox="0 0 1102 812" fill="none" xmlns="http://www.w3.org/2000/svg">
<rect width="1102" height="812" fill="#E5E5E5"/>
<path opacity="0.1" d="M12.84 389.02C30.21 456.15 66.95 514.18 125.01 542.31C245.71 600.77 517.92 570.62 721.08 536.01C826.17 518.11 918.54 468.71 985.64 399.19L12.84 389.02Z" fill="#606060"/>
<path opacity="0.1" d="M1078.2 73.03H966.73C961.44 73.03 957.1 69.11 957.1 64.32C957.1 59.53 961.44 55.6 966.73 55.6H986.01C980.71 55.6 976.38 51.68 976.38 46.88C976.38 42.08 980.71 38.17 986.01 38.17H972.25C966.95 38.17 962.61 34.25 962.61 29.45C962.61 24.65 966.95 20.74 972.25 20.74H1030.43C1017.52 15.31 1002.43 11.45 985.04 9.42001C826.39 -9.00999 769.75 3.18001 749.77 15.71C724.866 31.5225 697.202 42.4944 668.23 48.05C570.35 66.32 387.3 88.3 221.39 41.05C138.93 17.52 77.64 57.23 40.91 123.61H1097.56C1096.18 104.32 1092.05 86.5 1084.47 70.91C1082.67 72.296 1080.47 73.0422 1078.2 73.03V73.03Z" fill="#606060"/>
<path opacity="0.1" d="M3.39001 248.9C-0.891532 287.942 0.56389 327.4 7.71001 366.02L986.39 398.41C1013.33 370.469 1036.22 338.888 1054.39 304.59L3.39001 248.9ZM390.47 332.45H371.2C376.5 332.45 380.84 336.38 380.84 341.17C380.84 345.96 376.5 349.88 371.2 349.88H259.73C254.44 349.88 250.1 345.96 250.1 341.17C250.1 336.38 254.44 332.45 259.73 332.45H279.01C273.71 332.45 269.38 328.53 269.38 323.74C269.38 318.95 273.71 315.02 279.01 315.02H265.24C259.94 315.02 255.6 311.1 255.6 306.31C255.6 301.52 259.94 297.59 265.24 297.59H376.71C382.01 297.59 386.34 301.51 386.34 306.31C386.34 311.11 382.01 315.02 376.71 315.02H390.47C395.77 315.02 400.1 318.94 400.1 323.74C400.1 328.54 395.77 332.45 390.47 332.45Z" fill="#606060"/>
<path opacity="0.1" d="M1097.6 124.21L29.12 147.71C16.12 177.94 7.50003 212.12 3.53003 247.54H1078.88C1085.88 226.817 1091.07 205.528 1094.4 183.91C1097.61 163.1 1098.89 142.97 1097.6 124.21ZM220.47 201.26H201.2C206.5 201.26 210.84 205.19 210.84 209.98C210.84 214.77 206.5 218.7 201.2 218.7H89.73C84.44 218.7 80.1 214.77 80.1 209.98C80.1 205.19 84.44 201.26 89.73 201.26H109.01C103.71 201.26 99.38 197.34 99.38 192.55C99.38 187.76 103.71 183.83 109.01 183.83H95.24C89.94 183.83 85.6 179.91 85.6 175.12C85.6 170.33 89.94 166.4 95.24 166.4H206.71C212.01 166.4 216.34 170.32 216.34 175.12C216.34 179.92 212.01 183.83 206.71 183.83H220.47C225.77 183.83 230.1 187.76 230.1 192.55C230.1 197.34 225.77 201.26 220.47 201.26Z" fill="#606060"/>
<path opacity="0.1" d="M546.08 781.08C792.94 781.08 993.06 762.67 993.06 739.96C993.06 717.25 792.94 698.84 546.08 698.84C299.22 698.84 99.1 717.25 99.1 739.96C99.1 762.67 299.22 781.08 546.08 781.08Z" fill="#606060"/>
<path d="M808.92 418.91C808.92 418.91 811.85 405.13 807.92 400.75C803.99 396.37 805.25 373.41 811.25 373.91C817.25 374.41 826.25 392.57 824.75 396.41C823.25 400.25 817.58 419.91 817.58 419.91L808.92 418.91Z" fill="#FBBEBE"/>
<path d="M813.35 429.84C818.321 429.84 822.35 427.109 822.35 423.74C822.35 420.371 818.321 417.64 813.35 417.64C808.379 417.64 804.35 420.371 804.35 423.74C804.35 427.109 808.379 429.84 813.35 429.84Z" fill="#575A89"/>
<path d="M519.99 763.29C690.37 763.29 828.49 625.17 828.49 454.79C828.49 284.41 690.37 146.29 519.99 146.29C349.61 146.29 211.49 284.41 211.49 454.79C211.49 625.17 349.61 763.29 519.99 763.29Z" fill="#FFB53E"/>
<path d="M681.86 609.82C681.86 658.52 605.3 613.98 523.22 613.98C441.14 613.98 358.12 656.68 358.12 607.98C358.12 580.21 384.58 541.59 422.54 513.54C451.14 492.4 486.26 477.26 521.54 477.26C557.82 477.26 593.36 493.65 621.71 516.15C657.49 544.52 681.86 582.64 681.86 609.82Z" fill="#444053"/>
<path d="M621.7 516.13C578.07 509.56 499.16 501.55 422.54 513.52C451.14 492.38 486.26 477.24 521.54 477.24C557.81 477.24 593.35 493.63 621.7 516.13Z" fill="#F6F8FB"/>
<path opacity="0.05" d="M358.12 237.02C358.12 237.02 265.19 296.43 265.95 389.36C266.71 482.29 358.12 237.02 358.12 237.02Z" fill="black"/>
<path d="M828.37 69.23C828.37 69.23 744.17 64.16 754.1 123.16C754.1 123.16 752.1 133.58 761.58 138.32C761.58 138.32 761.73 133.95 770.21 135.43C773.232 135.936 776.303 136.083 779.36 135.87C783.49 135.589 787.416 133.967 790.54 131.25V131.25C790.54 131.25 814.21 121.48 823.42 82.79C823.42 82.79 830.23 74.35 829.96 72.19L815.75 78.25C815.75 78.25 820.6 88.5 816.75 97.02C816.75 97.02 816.29 78.63 813.56 79.02C813.01 79.11 806.18 82.57 806.18 82.57C806.18 82.57 814.53 100.43 808.18 113.4C808.18 113.4 810.57 91.4 803.52 83.86L793.52 89.7C793.52 89.7 803.28 108.14 796.66 123.19C796.66 123.19 798.36 100.11 791.42 91.12L782.35 98.19C782.35 98.19 791.52 116.37 785.93 128.85C785.93 128.85 785.2 101.98 780.39 99.95C780.39 99.95 772.46 106.95 771.25 109.82C771.25 109.82 777.53 123.01 773.64 129.97C773.64 129.97 771.25 112.07 769.29 111.97C769.29 111.97 761.39 123.83 760.56 131.97C760.56 131.97 760.91 119.87 767.37 110.84C767.37 110.84 759.73 112.15 755.28 117.11C755.28 117.11 756.51 108.72 769.28 107.99C769.28 107.99 775.81 98.99 777.56 98.45C777.56 98.45 764.81 97.38 757.08 100.81C757.08 100.81 763.88 92.9 779.89 96.49L788.89 89.19C788.89 89.19 772.11 86.89 764.99 89.43C764.99 89.43 773.18 82.43 791.3 87.53L801.05 81.7C801.05 81.7 786.74 78.62 778.21 79.7C778.21 79.7 787.21 74.85 803.9 80.11L810.9 76.98C810.9 76.98 800.41 74.92 797.34 74.6C794.27 74.28 794.11 73.42 794.11 73.42C800.772 72.3369 807.603 73.1298 813.84 75.71C813.84 75.71 828.62 70.16 828.37 69.23Z" fill="#191919"/>
<path d="M742.01 43C742.01 43 704.01 40.7 708.45 67.36C708.45 67.36 707.56 72.07 711.83 74.21C711.83 74.21 711.89 72.21 715.73 72.91C717.094 73.1346 718.48 73.2017 719.86 73.11C721.728 72.9767 723.503 72.2436 724.92 71.02V71.02C724.92 71.02 735.61 66.6 739.77 49.12C739.77 49.12 742.85 45.31 742.77 44.33L736.35 47.07C736.35 47.07 738.55 51.7 736.82 55.55C736.82 55.55 736.61 47.24 735.38 47.44C735.13 47.44 732.04 49.04 732.04 49.04C732.04 49.04 735.82 57.11 732.97 62.97C732.97 62.97 734.05 53.03 730.87 49.62L726.35 52.26C726.35 52.26 730.76 60.6 727.77 67.4C727.77 67.4 728.53 56.97 725.4 52.91L721.3 56.1C721.3 56.1 725.44 64.31 722.92 69.95C722.92 69.95 722.59 57.81 720.41 56.89C720.41 56.89 716.83 60.05 716.28 61.35C716.28 61.35 719.12 67.35 717.36 70.46C717.36 70.46 716.28 62.37 715.36 62.34C715.36 62.34 711.79 67.69 711.42 71.34C711.592 67.9432 712.651 64.6507 714.49 61.79C712.432 62.1793 710.534 63.1632 709.03 64.62C709.03 64.62 709.58 60.83 715.37 60.5C715.37 60.5 718.32 56.44 719.11 56.19C719.11 56.19 713.35 55.71 709.86 57.26C709.86 57.26 712.93 53.68 720.17 55.26L724.17 51.97C724.17 51.97 716.59 50.97 713.37 52.07C713.37 52.07 717.07 48.91 725.26 51.22L729.66 48.58C729.66 48.58 723.2 47.19 719.34 47.69C719.34 47.69 723.41 45.5 730.95 47.88L734.1 46.46C734.1 46.46 729.36 45.53 727.98 45.39C726.6 45.25 726.51 44.86 726.51 44.86C729.512 44.3606 732.594 44.7069 735.41 45.86C735.41 45.86 742.12 43.42 742.01 43Z" fill="#191919"/>
<path opacity="0.1" d="M1074.09 730.01C1088.96 730.01 1101.02 727.973 1101.02 725.46C1101.02 722.947 1088.96 720.91 1074.09 720.91C1059.22 720.91 1047.16 722.947 1047.16 725.46C1047.16 727.973 1059.22 730.01 1074.09 730.01Z" fill="#6C63FF"/>
<path opacity="0.1" d="M47.77 805.7C62.6431 805.7 74.7 803.663 74.7 801.15C74.7 798.637 62.6431 796.6 47.77 796.6C32.897 796.6 20.84 798.637 20.84 801.15C20.84 803.663 32.897 805.7 47.77 805.7Z" fill="#6C63FF"/>
<path opacity="0.1" d="M204.1 811.41C218.973 811.41 231.03 809.373 231.03 806.86C231.03 804.347 218.973 802.31 204.1 802.31C189.227 802.31 177.17 804.347 177.17 806.86C177.17 809.373 189.227 811.41 204.1 811.41Z" fill="#6C63FF"/>
<path d="M1015.15 781.02C1037.36 781.02 1055.36 777.976 1055.36 774.22C1055.36 770.464 1037.36 767.42 1015.15 767.42C992.943 767.42 974.94 770.464 974.94 774.22C974.94 777.976 992.943 781.02 1015.15 781.02Z" fill="#191919"/>
<path d="M1031.77 763.11C1033.61 761.612 1034.94 759.594 1035.61 757.32C1036.1 755.03 1035.12 752.27 1032.93 751.43C1030.47 750.49 1027.84 752.2 1025.85 753.92C1023.86 755.64 1021.57 757.6 1018.96 757.24C1020.3 756.025 1021.31 754.482 1021.87 752.762C1022.44 751.043 1022.55 749.206 1022.2 747.43C1022.09 746.694 1021.78 746.003 1021.3 745.43C1019.93 743.97 1017.46 744.59 1015.82 745.74C1010.62 749.4 1009.17 756.46 1009.14 762.82C1008.62 760.53 1009.06 758.14 1009.05 755.82C1009.04 753.5 1008.39 750.82 1006.41 749.59C1005.18 748.934 1003.8 748.61 1002.41 748.65C1000.07 748.56 997.47 748.79 995.87 750.5C993.87 752.63 994.4 756.19 996.13 758.5C997.86 760.81 1000.48 762.31 1002.89 763.92C1004.83 765.073 1006.48 766.649 1007.73 768.53C1007.88 768.795 1008 769.073 1008.09 769.36H1022.74C1026.02 767.694 1029.06 765.591 1031.77 763.11V763.11Z" fill="#191919"/>
<path d="M60.34 679.26C60.34 679.26 65.83 686.44 57.8 697.26C49.77 708.08 43.15 717.26 45.8 724.02C45.8 724.02 57.91 703.88 67.8 703.59C77.69 703.3 71.18 691.37 60.34 679.26Z" fill="#191919"/>
<path opacity="0.1" d="M60.34 679.26C60.8167 679.954 61.1937 680.711 61.46 681.51C71.08 692.81 76.2 703.36 66.96 703.62C58.34 703.87 47.96 719.27 45.53 723.16C45.6149 723.462 45.7151 723.759 45.83 724.05C45.83 724.05 57.94 703.91 67.83 703.62C77.72 703.33 71.18 691.37 60.34 679.26Z" fill="black"/>
<path d="M70.55 688.41C70.55 690.94 70.26 692.99 69.91 692.99C69.56 692.99 69.28 690.99 69.28 688.41C69.28 685.83 69.63 687.07 69.99 687.07C70.35 687.07 70.55 685.88 70.55 688.41Z" fill="#FFD037"/>
<path d="M74.01 691.43C71.79 692.64 69.86 693.37 69.69 693.06C69.52 692.75 71.19 691.53 73.41 690.32C75.63 689.11 74.75 689.99 74.92 690.32C75.09 690.65 76.27 690.22 74.01 691.43Z" fill="#FFD037"/>
<path d="M31.32 679.26C31.32 679.26 25.83 686.44 33.85 697.26C41.87 708.08 48.5 717.26 45.85 724.02C45.85 724.02 33.73 703.88 23.85 703.59C13.97 703.3 20.47 691.37 31.32 679.26Z" fill="#191919"/>
<path opacity="0.1" d="M31.32 679.26C30.8389 679.951 30.4615 680.709 30.2 681.51C20.58 692.81 15.45 703.36 24.7 703.62C33.31 703.87 43.7 719.27 46.12 723.16C46.0384 723.461 45.9416 723.758 45.83 724.05C45.83 724.05 33.71 703.91 23.83 703.62C13.95 703.33 20.47 691.37 31.32 679.26Z" fill="black"/>
<path d="M21.11 688.41C21.11 690.94 21.39 692.99 21.74 692.99C22.09 692.99 22.37 690.99 22.37 688.41C22.37 685.83 22.02 687.07 21.67 687.07C21.32 687.07 21.11 685.88 21.11 688.41Z" fill="#FFD037"/>
<path d="M17.6 691.43C19.82 692.64 21.76 693.37 21.93 693.06C22.1 692.75 20.43 691.53 18.21 690.32C15.99 689.11 16.86 689.99 16.7 690.32C16.54 690.65 15.38 690.22 17.6 691.43Z" fill="#FFD037"/>
<path d="M22.86 723.11C22.86 723.11 38.22 722.64 42.86 719.34C47.5 716.04 66.49 712.11 67.64 717.34C68.79 722.57 90.72 743.64 73.38 743.78C56.04 743.92 33.09 741.07 28.47 738.26C23.85 735.45 22.86 723.11 22.86 723.11Z" fill="#A8A8A8"/>
<path opacity="0.2" d="M73.67 741.99C56.33 742.13 33.38 739.28 28.76 736.47C25.24 734.33 23.84 726.64 23.37 723.09H22.86C22.86 723.09 23.86 735.48 28.45 738.29C33.04 741.1 56.02 743.95 73.36 743.81C78.36 743.81 80.09 741.98 80 739.35C79.3 740.96 77.4 741.96 73.67 741.99Z" fill="black"/>
<path d="M410.31 414.34C416.18 414.01 443.81 411.93 461.36 401.92C464.179 400.262 467.363 399.324 470.63 399.19C476.21 399.03 482.63 401.36 478.52 414.4C471.86 435.73 433.19 459.73 409.19 458.4C386.11 457.12 358.73 447.82 340.65 415.12C338.918 411.974 338.065 408.42 338.18 404.83C338.39 398.23 340.79 389.96 353.18 399.18C369.92 411.63 401.68 413.99 408.05 414.34C408.803 414.38 409.557 414.38 410.31 414.34V414.34Z" fill="#444053"/>
<path d="M632.31 414.34C638.18 414.01 665.81 411.93 683.36 401.92C686.179 400.262 689.363 399.324 692.63 399.19C698.21 399.03 704.63 401.36 700.52 414.4C693.86 435.73 655.19 459.73 631.19 458.4C608.11 457.12 580.73 447.82 562.65 415.12C560.918 411.974 560.064 408.42 560.18 404.83C560.39 398.23 562.79 389.96 575.18 399.18C591.92 411.63 623.68 413.99 630.05 414.34C630.803 414.38 631.557 414.38 632.31 414.34V414.34Z" fill="#444053"/>
</svg>
