[
  {
    "context": [
      "/courier-api"
    ],
    "target": "http://35.184.198.153:8080/",
    "pathRewrite": {
      "^/courier-api": ""
    },
    "secure": false,
    "logLevel": "debug",
    "changeOrigin": true
  }
]
